{
  "/cars": {
    "target": "http://localhost:8080",
    "secure": false,
    "changeOrigin": true,
    "logLevel": "debug"
  },
  "/login": {
    "target": "http://localhost:8080",
    "secure": false,
    "changeOrigin": true,
    "logLevel": "debug"
  }
}
